%YAML 1.1
%TAG !u! tag:unity3d.com,2011:
--- !u!21 &2100000
Material:
  serializedVersion: 6
  m_ObjectHideFlags: 0
  m_PrefabParentObject: {fileID: 0}
  m_PrefabInternal: {fileID: 0}
  m_Name: Wall-v2
  m_Shader: {fileID: 10705, guid: 0000000000000000f000000000000000, type: 0}
  m_ShaderKeywords: _EMISSION _NORMALMAP
  m_LightmapFlags: 1
  m_CustomRenderQueue: -1
  stringTagMap: {}
  m_SavedProperties:
    serializedVersion: 2
    m_TexEnvs:
    - first:
        name: _BumpMap
      second:
        m_Texture: {fileID: 2800000, guid: 10e1cceba0a7e694491008efc84993aa, type: 3}
        m_Scale: {x: 1, y: 1}
        m_Offset: {x: 0, y: 0}
    - first:
        name: _DetailAlbedoMap
      second:
        m_Texture: {fileID: 0}
        m_Scale: {x: 1, y: 1}
        m_Offset: {x: 0, y: 0}
    - first:
        name: _DetailMask
      second:
        m_Texture: {fileID: 0}
        m_Scale: {x: 1, y: 1}
        m_Offset: {x: 0, y: 0}
    - first:
        name: _DetailNormalMap
      second:
        m_Texture: {fileID: 0}
        m_Scale: {x: 1, y: 1}
        m_Offset: {x: 0, y: 0}
    - first:
        name: _EmissionMap
      second:
        m_Texture: {fileID: 0}
        m_Scale: {x: 1, y: 1}
        m_Offset: {x: 0, y: 0}
    - first:
        name: _MainTex
      second:
        m_Texture: {fileID: 2800000, guid: 30f17b29117634856a062ceec69e396e, type: 3}
        m_Scale: {x: 0.2, y: 1}
        m_Offset: {x: 0, y: 0}
    - first:
        name: _MetallicGlossMap
      second:
        m_Texture: {fileID: 0}
        m_Scale: {x: 1, y: 1}
        m_Offset: {x: 0, y: 0}
    - first:
        name: _MicroBumpMap
      second:
        m_Texture: {fileID: 0}
        m_Scale: {x: 1, y: 1}
        m_Offset: {x: 0, y: 0}
    - first:
        name: _OcclusionMap
      second:
        m_Texture: {fileID: 0}
        m_Scale: {x: 1, y: 1}
        m_Offset: {x: 0, y: 0}
    - first:
        name: _ParallaxMap
      second:
        m_Texture: {fileID: 0}
        m_Scale: {x: 1, y: 1}
        m_Offset: {x: 0, y: 0}
    - first:
        name: _SpecGlossMap
      second:
        m_Texture: {fileID: 0}
        m_Scale: {x: 1, y: 1}
        m_Offset: {x: 0, y: 0}
    - first:
        name: _SpecGlossMap2
      second:
        m_Texture: {fileID: 0}
        m_Scale: {x: 1, y: 1}
        m_Offset: {x: 0, y: 0}
    - first:
        name: _SpecTex
      second:
        m_Texture: {fileID: 0}
        m_Scale: {x: 1, y: 1}
        m_Offset: {x: 0, y: 0}
    - first:
        name: _TangentDir
      second:
        m_Texture: {fileID: 0}
        m_Scale: {x: 1, y: 1}
        m_Offset: {x: 0, y: 0}
    m_Floats:
    - first:
        name: _Bias
      second: 0
    - first:
        name: _BlurStrength
      second: 1
    - first:
        name: _BumpBias
      second: 2
    - first:
        name: _BumpInfluence
      second: 1
    - first:
        name: _BumpScale
      second: 0.05
    - first:
        name: _CurvatureInfluence
      second: 0.5
    - first:
        name: _CurvatureScale
      second: 0.02
    - first:
        name: _Cutoff
      second: 0.5
    - first:
        name: _DetailNormalMapScale
      second: 1
    - first:
        name: _DiffuseScatteringBias
      second: 0
    - first:
        name: _DiffuseScatteringBias2
      second: 0
    - first:
        name: _DiffuseScatteringContraction
      second: 8
    - first:
        name: _DiffuseScatteringContraction2
      second: 8
    - first:
        name: _DstBlend
      second: 0
    - first:
        name: _EdgeLength
      second: 5
    - first:
        name: _EnableIndependentPuddleMaskTiling
      second: 0
    - first:
        name: _EnableMetallGlossMap
      second: 0
    - first:
        name: _EnablePOM
      second: 0
    - first:
        name: _FresnelFactor
      second: 5
    - first:
        name: _GeoInfluence
      second: 1
    - first:
        name: _GlossMapScale
      second: 0.866
    - first:
        name: _Glossiness
      second: 0.837
    - first:
        name: _GlossyReflections
      second: 1
    - first:
        name: _LinearSteps
      second: 20
    - first:
        name: _Lux_FlowInterval
      second: 1
    - first:
        name: _Lux_FlowNormalStrength
      second: 1
    - first:
        name: _Lux_FlowNormalTiling
      second: 2
    - first:
        name: _Lux_FlowRefraction
      second: 0.02
    - first:
        name: _Lux_FlowSpeed
      second: 0.05
    - first:
        name: _MaxDist
      second: 25
    - first:
        name: _Metallic
      second: 0
    - first:
        name: _MicroBumpMapTiling
      second: 10
    - first:
        name: _MicroBumpScale
      second: 1
    - first:
        name: _MinDist
      second: 7
    - first:
        name: _Mode
      second: 0
    - first:
        name: _OcclusionStrength
      second: 1
    - first:
        name: _Parallax
      second: 0.02
    - first:
        name: _ParallaxTiling
      second: 1
    - first:
        name: _Phong
      second: 1
    - first:
        name: _PuddleMaskTiling
      second: 1
    - first:
        name: _Refraction
      second: 10
    - first:
        name: _Shininess
      second: 0.036
    - first:
        name: _SmoothnessTextureChannel
      second: 0
    - first:
        name: _SnowDetailStrength
      second: 0.5
    - first:
        name: _SnowNormalStrength
      second: 1
    - first:
        name: _SnowOpacity
      second: 0.5
    - first:
        name: _SnowSlopeDamp
      second: 1
    - first:
        name: _SpecularHighlights
      second: 1
    - first:
        name: _SrcBlend
      second: 1
    - first:
        name: _TangentDirStrength
      second: 1
    - first:
        name: _Translucency
      second: 0
    - first:
        name: _UVSec
      second: 0
    - first:
        name: _UseMicroBumps
      second: 0
    - first:
        name: _WaterSlopeDamp
      second: 0.5
    - first:
        name: _ZWrite
      second: 1
    m_Colors:
    - first:
        name: _BaseTangentDir
      second: {r: 0, g: 1, b: 0, a: 0}
    - first:
        name: _Color
      second: {r: 1, g: 1, b: 1, a: 1}
    - first:
        name: _Color2
      second: {r: 1, g: 1, b: 1, a: 1}
    - first:
        name: _DiffuseScatteringCol
      second: {r: 0, g: 0, b: 0, a: 1}
    - first:
        name: _DiffuseScatteringCol2
      second: {r: 0, g: 0, b: 0, a: 1}
    - first:
        name: _EmissionColor
      second: {r: 0, g: 0, b: 0, a: 1}
    - first:
        name: _ParallaxToBaseRatio
      second: {r: 1, g: 1, b: 0, a: 0}
    - first:
        name: _SnowAccumulation
      second: {r: 0, g: 1, b: 0, a: 0}
    - first:
        name: _SnowDetailTiling
      second: {r: 4, g: 4, b: 0, a: 0}
    - first:
        name: _SnowMaskTiling
      second: {r: 0.3, g: 0.3, b: 0, a: 0}
    - first:
        name: _SnowTiling
      second: {r: 2, g: 2, b: 0, a: 0}
    - first:
        name: _SpecColor
      second: {r: 0.2, g: 0.2, b: 0.2, a: 1}
    - first:
        name: _UVRatio
      second: {r: 1, g: 1, b: 0, a: 0}
    - first:
        name: _WaterAccumulationCracksPuddles
      second: {r: 0, g: 1, b: 0, a: 1}
    - first:
        name: _WaterAccumulationCracksPuddles2
      second: {r: 0, g: 1, b: 0, a: 1}
    - first:
        name: _WaterColor
      second: {r: 0, g: 0, b: 0, a: 0}
    - first:
        name: _WaterColor2
      second: {r: 0, g: 0, b: 0, a: 0}
