%YAML 1.1
%TAG !u! tag:unity3d.com,2011:
--- !u!21 &2100000
Material:
  serializedVersion: 6
  m_ObjectHideFlags: 0
  m_PrefabParentObject: {fileID: 0}
  m_PrefabInternal: {fileID: 0}
  m_Name: Cobblestone POM UV Ratio
  m_Shader: {fileID: 4800000, guid: fec236f05d8c641a680d2d88084a12f7, type: 3}
  m_ShaderKeywords: EFFECT_BUMP _NORMALMAP _PARALLAXMAP _WETNESS_FULL
  m_LightmapFlags: 5
  m_CustomRenderQueue: -1
  stringTagMap: {}
  m_SavedProperties:
    serializedVersion: 2
    m_TexEnvs:
    - first:
        name: _BumpMap
      second:
        m_Texture: {fileID: 2800000, guid: 34dd97e8a79584ac3bb524c198ec3b7f, type: 3}
        m_Scale: {x: 1, y: 1}
        m_Offset: {x: 0, y: 0}
    - first:
        name: _CombinedMap
      second:
        m_Texture: {fileID: 0}
        m_Scale: {x: 1, y: 1}
        m_Offset: {x: 0, y: 0}
    - first:
        name: _DetailAlbedoMap
      second:
        m_Texture: {fileID: 0}
        m_Scale: {x: 4, y: 4}
        m_Offset: {x: 0, y: 0}
    - first:
        name: _DetailMask
      second:
        m_Texture: {fileID: 0}
        m_Scale: {x: 1, y: 1}
        m_Offset: {x: 0, y: 0}
    - first:
        name: _DetailNormalMap
      second:
        m_Texture: {fileID: 0}
        m_Scale: {x: 1, y: 1}
        m_Offset: {x: 0, y: 0}
    - first:
        name: _EmissionMap
      second:
        m_Texture: {fileID: 0}
        m_Scale: {x: 3, y: 18}
        m_Offset: {x: 0, y: 0}
    - first:
        name: _MainTex
      second:
        m_Texture: {fileID: 2800000, guid: 2d56d51e7342b4daf95ddc044d027b03, type: 3}
        m_Scale: {x: 3, y: 18}
        m_Offset: {x: 0, y: 0}
    - first:
        name: _MetallicGlossMap
      second:
        m_Texture: {fileID: 0}
        m_Scale: {x: 1, y: 1}
        m_Offset: {x: 0, y: 0}
    - first:
        name: _OcclusionMap
      second:
        m_Texture: {fileID: 2800000, guid: 984a6cfb840f643bbb85588848d19856, type: 3}
        m_Scale: {x: 1, y: 1}
        m_Offset: {x: 0, y: 0}
    - first:
        name: _ParallaxMap
      second:
        m_Texture: {fileID: 2800000, guid: fd05cd3bdae2e4a909729af47474deef, type: 3}
        m_Scale: {x: 1, y: 1}
        m_Offset: {x: 0, y: 0}
    - first:
        name: _SpecGlossMap
      second:
        m_Texture: {fileID: 0}
        m_Scale: {x: 1, y: 1}
        m_Offset: {x: 0, y: 0}
    - first:
        name: _SpecGlossMap2
      second:
        m_Texture: {fileID: 0}
        m_Scale: {x: 1, y: 1}
        m_Offset: {x: 0, y: 0}
    m_Floats:
    - first:
        name: _BumpScale
      second: 1
    - first:
        name: _Cull
      second: 2
    - first:
        name: _CullShadowPass
      second: 2
    - first:
        name: _Cutoff
      second: 0.5
    - first:
        name: _DetailNormalMapScale
      second: 1
    - first:
        name: _DiffuseScatteringBias
      second: 0
    - first:
        name: _DiffuseScatteringBias2
      second: 0
    - first:
        name: _DiffuseScatteringContraction
      second: 8
    - first:
        name: _DiffuseScatteringContraction2
      second: 8
    - first:
        name: _DiffuseScatteringEnabled
      second: 0
    - first:
        name: _DoubleSided
      second: 0
    - first:
        name: _DstBlend
      second: 0
    - first:
        name: _GlobalSnowAccumulation
      second: 0
    - first:
        name: _Glossiness
      second: 0.1
    - first:
        name: _Glossiness2
      second: 0.158
    - first:
        name: _HeightMapInfluence
      second: 1
    - first:
        name: _Lighting
      second: 0
    - first:
        name: _LinearSteps
      second: 20
    - first:
        name: _Lux_FlowInterval
      second: 1
    - first:
        name: _Lux_FlowNormalStrength
      second: 1
    - first:
        name: _Lux_FlowNormalTiling
      second: 2
    - first:
        name: _Lux_FlowRefraction
      second: 0.02
    - first:
        name: _Lux_FlowSpeed
      second: 0.28
    - first:
        name: _Metallic
      second: 0
    - first:
        name: _MixMappingControl
      second: 0
    - first:
        name: _Mode
      second: 0
    - first:
        name: _OcclusionInfluence
      second: 1
    - first:
        name: _OcclusionStrength
      second: 1
    - first:
        name: _POM_LinearSteps
      second: 14
    - first:
        name: _Parallax
      second: 0.1
    - first:
        name: _ParallaxTiling
      second: 1
    - first:
        name: _PuddleMask
      second: 0
    - first:
        name: _PuddleMaskTiling
      second: 0.5
    - first:
        name: _Puddlemask
      second: 0
    - first:
        name: _ScatteringPower
      second: 4
    - first:
        name: _Snow
      second: 0
    - first:
        name: _SnowDetailStrength
      second: 0.3
    - first:
        name: _SnowDetailTiling
      second: 8
    - first:
        name: _SnowMaskTiling
      second: 0.3
    - first:
        name: _SnowNormalStrength
      second: 1
    - first:
        name: _SnowOpacity
      second: 1
    - first:
        name: _SnowSlopeDamp
      second: 0.6
    - first:
        name: _SnowTiling
      second: 2
    - first:
        name: _SrcBlend
      second: 1
    - first:
        name: _SyncWaterOfMaterials
      second: 0
    - first:
        name: _TranslucencyStrength
      second: 0.493
    - first:
        name: _UVSec
      second: 0
    - first:
        name: _UseCombinedMap
      second: 0
    - first:
        name: _UseMixMapping
      second: 0
    - first:
        name: _UsePOM
      second: 1
    - first:
        name: _WaterCrackMultiplier
      second: 0.75
    - first:
        name: _WaterCrackMultiplier2
      second: 1
    - first:
        name: _WaterPuddleMultiplier
      second: 0.66
    - first:
        name: _WaterPuddleMultiplier2
      second: 1
    - first:
        name: _WaterSlopeDamp
      second: 0.375
    - first:
        name: _Wetness
      second: 4
    - first:
        name: _ZWrite
      second: 1
    m_Colors:
    - first:
        name: _Color
      second: {r: 1, g: 1, b: 1, a: 1}
    - first:
        name: _Color2
      second: {r: 0.09753458, g: 0.10102012, b: 0.60294116, a: 1}
    - first:
        name: _DiffuseScatteringCol
      second: {r: 0, g: 0, b: 0, a: 0}
    - first:
        name: _DiffuseScatteringCol2
      second: {r: 0, g: 0, b: 0, a: 0}
    - first:
        name: _EmissionColor
      second: {r: 0, g: 0, b: 0, a: 1}
    - first:
        name: _SnowAccumulation
      second: {r: 0, g: 1, b: 0, a: 0}
    - first:
        name: _SnowDetailTiling
      second: {r: 4, g: 4, b: 0, a: 0}
    - first:
        name: _SnowMaskTiling
      second: {r: 0.3, g: 0.3, b: 0, a: 0}
    - first:
        name: _SnowTiling
      second: {r: 2, g: 2, b: 0, a: 0}
    - first:
        name: _SpecColor
      second: {r: 0.19999996, g: 0.19999996, b: 0.19999996, a: 1}
    - first:
        name: _SpecColor2
      second: {r: 0.19999996, g: 0.19999996, b: 0.19999996, a: 1}
    - first:
        name: _WaterAccumulationCracks
      second: {r: 0, g: 1, b: 0, a: 0}
    - first:
        name: _WaterAccumulationCracksPuddles
      second: {r: 0.42, g: 0, b: 0.88, a: 0}
    - first:
        name: _WaterAccumulationCracksPuddles2
      second: {r: 0, g: 1, b: 0, a: 1}
    - first:
        name: _WaterColor
      second: {r: 0.4824826, g: 0.53613883, b: 0.6764706, a: 0}
    - first:
        name: _WaterColor2
      second: {r: 0.4824826, g: 0.53613883, b: 0.6764706, a: 0}
