%YAML 1.1
%TAG !u! tag:unity3d.com,2011:
--- !u!21 &2100000
Material:
  serializedVersion: 6
  m_ObjectHideFlags: 0
  m_PrefabParentObject: {fileID: 0}
  m_PrefabInternal: {fileID: 0}
  m_Name: Simple POM with UV Ratio
  m_Shader: {fileID: 4800000, guid: 5585d710693c449f8ae5d6a00382fbe6, type: 3}
  m_ShaderKeywords: EFFECT_BUMP GEOM_TYPE_BRANCH_DETAIL _DETAIL_MULX2 _NORMALMAP _PARALLAXMAP
  m_LightmapFlags: 5
  m_CustomRenderQueue: 2000
  stringTagMap: {}
  m_SavedProperties:
    serializedVersion: 2
    m_TexEnvs:
    - first:
        name: _BumpMap
      second:
        m_Texture: {fileID: 2800000, guid: 34dd97e8a79584ac3bb524c198ec3b7f, type: 3}
        m_Scale: {x: 1, y: 1}
        m_Offset: {x: 0, y: 0}
    - first:
        name: _CombinedMap
      second:
        m_Texture: {fileID: 0}
        m_Scale: {x: 1, y: 1}
        m_Offset: {x: 0, y: 0}
    - first:
        name: _DetailAlbedoMap
      second:
        m_Texture: {fileID: 2800000, guid: 709ee796a7bd049d99744f5d55859909, type: 3}
        m_Scale: {x: 1, y: 15}
        m_Offset: {x: 0, y: 0}
    - first:
        name: _DetailMask
      second:
        m_Texture: {fileID: 0}
        m_Scale: {x: 1, y: 1}
        m_Offset: {x: 0, y: 0}
    - first:
        name: _DetailNormalMap
      second:
        m_Texture: {fileID: 2800000, guid: b3472a995dd3046e0924075de4a2eb18, type: 3}
        m_Scale: {x: 1, y: 1}
        m_Offset: {x: 0, y: 0}
    - first:
        name: _EmissionMap
      second:
        m_Texture: {fileID: 0}
        m_Scale: {x: 2, y: 30}
        m_Offset: {x: 0, y: 0}
    - first:
        name: _MainTex
      second:
        m_Texture: {fileID: 2800000, guid: 2d56d51e7342b4daf95ddc044d027b03, type: 3}
        m_Scale: {x: 2, y: 20}
        m_Offset: {x: 0, y: 0}
    - first:
        name: _MetallicGlossMap
      second:
        m_Texture: {fileID: 0}
        m_Scale: {x: 1, y: 1}
        m_Offset: {x: 0, y: 0}
    - first:
        name: _MetallicGlossMap2
      second:
        m_Texture: {fileID: 0}
        m_Scale: {x: 1, y: 1}
        m_Offset: {x: 0, y: 0}
    - first:
        name: _OcclusionMap
      second:
        m_Texture: {fileID: 0}
        m_Scale: {x: 1, y: 1}
        m_Offset: {x: 0, y: 0}
    - first:
        name: _ParallaxMap
      second:
        m_Texture: {fileID: 2800000, guid: a703ecebfb6704544b9f1327ee5e9d20, type: 3}
        m_Scale: {x: 1, y: 1}
        m_Offset: {x: 0, y: 0}
    - first:
        name: _SpecGlossMap
      second:
        m_Texture: {fileID: 0}
        m_Scale: {x: 1, y: 1}
        m_Offset: {x: 0, y: 0}
    - first:
        name: _SpecGlossMap2
      second:
        m_Texture: {fileID: 0}
        m_Scale: {x: 1, y: 1}
        m_Offset: {x: 0, y: 0}
    m_Floats:
    - first:
        name: _BumpScale
      second: 1
    - first:
        name: _Cull
      second: 2
    - first:
        name: _CullShadowPass
      second: 2
    - first:
        name: _Cutoff
      second: 0.5
    - first:
        name: _DetailNormalMapScale
      second: 1
    - first:
        name: _DiffuseScatteringBias
      second: 0
    - first:
        name: _DiffuseScatteringBias2
      second: 0
    - first:
        name: _DiffuseScatteringContraction
      second: 8
    - first:
        name: _DiffuseScatteringContraction2
      second: 8
    - first:
        name: _DiffuseScatteringEnabled
      second: 0
    - first:
        name: _DoubleSided
      second: 0
    - first:
        name: _DstBlend
      second: 0
    - first:
        name: _EnableIndependentPuddleMaskTiling
      second: 0
    - first:
        name: _EnablePOM
      second: 1
    - first:
        name: _Glossiness
      second: 0.5
    - first:
        name: _Glossiness2
      second: 0.5
    - first:
        name: _Lighting
      second: 0
    - first:
        name: _LinearSteps
      second: 32
    - first:
        name: _Lux_FlowInterval
      second: 1
    - first:
        name: _Lux_FlowNormalStrength
      second: 1
    - first:
        name: _Lux_FlowNormalTiling
      second: 2
    - first:
        name: _Lux_FlowRefraction
      second: 0.02
    - first:
        name: _Lux_FlowSpeed
      second: 0.05
    - first:
        name: _Metallic
      second: 0
    - first:
        name: _Metallic2
      second: 0
    - first:
        name: _MixMappingControl
      second: 0
    - first:
        name: _Mode
      second: 0
    - first:
        name: _OcclusionStrength
      second: 1
    - first:
        name: _Parallax
      second: 0.08
    - first:
        name: _ParallaxTiling
      second: 1
    - first:
        name: _PuddleMask
      second: 0
    - first:
        name: _PuddleMaskTiling
      second: 1
    - first:
        name: _ScatteringPower
      second: 4
    - first:
        name: _Snow
      second: 0
    - first:
        name: _SnowDetailStrength
      second: 0.3
    - first:
        name: _SnowNormalStrength
      second: 1
    - first:
        name: _SnowOpacity
      second: 0.5
    - first:
        name: _SnowSlopeDamp
      second: 0.75
    - first:
        name: _SrcBlend
      second: 1
    - first:
        name: _SyncWaterOfMaterials
      second: 0
    - first:
        name: _TranslucencyStrength
      second: 0.5
    - first:
        name: _UVSec
      second: 0
    - first:
        name: _UseCombinedMap
      second: 0
    - first:
        name: _UseMixMapping
      second: 1
    - first:
        name: _UsePOM
      second: 1
    - first:
        name: _WaterSlopeDamp
      second: 0.5
    - first:
        name: _Wetness
      second: 0
    - first:
        name: _ZWrite
      second: 1
    m_Colors:
    - first:
        name: _Color
      second: {r: 1, g: 1, b: 1, a: 1}
    - first:
        name: _Color2
      second: {r: 1, g: 1, b: 1, a: 1}
    - first:
        name: _DiffuseScatteringCol
      second: {r: 0, g: 0, b: 0, a: 0}
    - first:
        name: _DiffuseScatteringCol2
      second: {r: 0, g: 0, b: 0, a: 0}
    - first:
        name: _EmissionColor
      second: {r: 0, g: 0, b: 0, a: 1}
    - first:
        name: _SnowAccumulation
      second: {r: 0, g: 1, b: 0, a: 0}
    - first:
        name: _SnowDetailTiling
      second: {r: 4, g: 4, b: 0, a: 0}
    - first:
        name: _SnowMaskTiling
      second: {r: 0.3, g: 0.3, b: 0, a: 0}
    - first:
        name: _SnowTiling
      second: {r: 2, g: 2, b: 0, a: 0}
    - first:
        name: _SpecColor
      second: {r: 0.19999996, g: 0.19999996, b: 0.19999996, a: 1}
    - first:
        name: _SpecColor2
      second: {r: 0.19999996, g: 0.19999996, b: 0.19999996, a: 1}
    - first:
        name: _UVRatio
      second: {r: 1, g: 20, b: 0, a: 0}
    - first:
        name: _WaterAccumulationCracksPuddles
      second: {r: 0, g: 1, b: 0, a: 1}
    - first:
        name: _WaterAccumulationCracksPuddles2
      second: {r: 0, g: 1, b: 0, a: 1}
    - first:
        name: _WaterColor
      second: {r: 0, g: 0, b: 0, a: 0}
    - first:
        name: _WaterColor2
      second: {r: 0, g: 0, b: 0, a: 0}
